%YAML 1.1
%TAG !u! tag:unity3d.com,2011:
--- !u!1 &35172649602759988
GameObject:
  m_ObjectHideFlags: 0
  m_CorrespondingSourceObject: {fileID: 0}
  m_PrefabInstance: {fileID: 0}
  m_PrefabAsset: {fileID: 0}
  serializedVersion: 6
  m_Component:
  - component: {fileID: 9072802265898490267}
  m_Layer: 9
  m_Name: 4
  m_TagString: Untagged
  m_Icon: {fileID: 0}
  m_NavMeshLayer: 0
  m_StaticEditorFlags: 0
  m_IsActive: 1
--- !u!4 &9072802265898490267
Transform:
  m_ObjectHideFlags: 0
  m_CorrespondingSourceObject: {fileID: 0}
  m_PrefabInstance: {fileID: 0}
  m_PrefabAsset: {fileID: 0}
  m_GameObject: {fileID: 35172649602759988}
  m_LocalRotation: {x: 0, y: 0, z: 0, w: 1}
  m_LocalPosition: {x: 0, y: 0, z: 0}
  m_LocalScale: {x: 1, y: 1, z: 1}
  m_Children: []
  m_Father: {fileID: 6456669715562829167}
  m_RootOrder: 4
  m_LocalEulerAnglesHint: {x: 0, y: 0, z: 0}
--- !u!1 &1744471309030756538
GameObject:
  m_ObjectHideFlags: 0
  m_CorrespondingSourceObject: {fileID: 0}
  m_PrefabInstance: {fileID: 0}
  m_PrefabAsset: {fileID: 0}
  serializedVersion: 6
  m_Component:
  - component: {fileID: 5649381664474234402}
  m_Layer: 9
  m_Name: 1
  m_TagString: Untagged
  m_Icon: {fileID: 0}
  m_NavMeshLayer: 0
  m_StaticEditorFlags: 0
  m_IsActive: 1
--- !u!4 &5649381664474234402
Transform:
  m_ObjectHideFlags: 0
  m_CorrespondingSourceObject: {fileID: 0}
  m_PrefabInstance: {fileID: 0}
  m_PrefabAsset: {fileID: 0}
  m_GameObject: {fileID: 1744471309030756538}
  m_LocalRotation: {x: 3.5527137e-15, y: -0.20480154, z: -2.6645353e-15, w: 0.9788036}
  m_LocalPosition: {x: 0.0264, y: 0.0306, z: -0.0756}
  m_LocalScale: {x: 1, y: 1, z: 1}
  m_Children: []
  m_Father: {fileID: 6456669715562829167}
  m_RootOrder: 1
  m_LocalEulerAnglesHint: {x: 0, y: -23.636002, z: 0}
--- !u!1 &1987964545974542731
GameObject:
  m_ObjectHideFlags: 0
  m_CorrespondingSourceObject: {fileID: 0}
  m_PrefabInstance: {fileID: 0}
  m_PrefabAsset: {fileID: 0}
  serializedVersion: 6
  m_Component:
  - component: {fileID: 7327884467365828337}
  m_Layer: 9
  m_Name: 0
  m_TagString: Untagged
  m_Icon: {fileID: 0}
  m_NavMeshLayer: 0
  m_StaticEditorFlags: 0
  m_IsActive: 1
--- !u!4 &7327884467365828337
Transform:
  m_ObjectHideFlags: 0
  m_CorrespondingSourceObject: {fileID: 0}
  m_PrefabInstance: {fileID: 0}
  m_PrefabAsset: {fileID: 0}
  m_GameObject: {fileID: 1987964545974542731}
  m_LocalRotation: {x: 1.6237014e-15, y: -0.37672028, z: 1.776357e-15, w: 0.9263271}
  m_LocalPosition: {x: 0.042049, y: 0.04, z: -0.099156}
  m_LocalScale: {x: 1, y: 1, z: 1}
  m_Children: []
  m_Father: {fileID: 6456669715562829167}
  m_RootOrder: 0
  m_LocalEulerAnglesHint: {x: 0, y: -44.261, z: 0}
--- !u!1 &2576825198941266443
GameObject:
  m_ObjectHideFlags: 0
  m_CorrespondingSourceObject: {fileID: 0}
  m_PrefabInstance: {fileID: 0}
  m_PrefabAsset: {fileID: 0}
  serializedVersion: 6
  m_Component:
  - component: {fileID: 7503736600813960409}
  m_Layer: 9
  m_Name: 2
  m_TagString: Untagged
  m_Icon: {fileID: 0}
  m_NavMeshLayer: 0
  m_StaticEditorFlags: 0
  m_IsActive: 1
--- !u!4 &7503736600813960409
Transform:
  m_ObjectHideFlags: 0
  m_CorrespondingSourceObject: {fileID: 0}
  m_PrefabInstance: {fileID: 0}
  m_PrefabAsset: {fileID: 0}
  m_GameObject: {fileID: 2576825198941266443}
  m_LocalRotation: {x: 3.5527137e-15, y: -0.20480154, z: -2.6645353e-15, w: 0.9788036}
  m_LocalPosition: {x: 0.017, y: 0.021624, z: -0.0546}
  m_LocalScale: {x: 1, y: 1, z: 1}
  m_Children: []
  m_Father: {fileID: 6456669715562829167}
  m_RootOrder: 2
  m_LocalEulerAnglesHint: {x: 0, y: -23.636002, z: 0}
--- !u!1 &2809563105460020774
GameObject:
  m_ObjectHideFlags: 0
  m_CorrespondingSourceObject: {fileID: 0}
  m_PrefabInstance: {fileID: 0}
  m_PrefabAsset: {fileID: 0}
  serializedVersion: 6
  m_Component:
  - component: {fileID: 1969577687295331754}
  - component: {fileID: 5167245618459964633}
  m_Layer: 9
  m_Name: AngleL
  m_TagString: Untagged
  m_Icon: {fileID: 0}
  m_NavMeshLayer: 0
  m_StaticEditorFlags: 0
  m_IsActive: 1
--- !u!4 &1969577687295331754
Transform:
  m_ObjectHideFlags: 0
  m_CorrespondingSourceObject: {fileID: 0}
  m_PrefabInstance: {fileID: 0}
  m_PrefabAsset: {fileID: 0}
  m_GameObject: {fileID: 2809563105460020774}
  m_LocalRotation: {x: 0, y: -0.92460597, z: 0, w: 0.38092512}
  m_LocalPosition: {x: 180.79735, y: 22.21, z: 132.4127}
  m_LocalScale: {x: -100, y: 100, z: 100.000046}
  m_Children:
  - {fileID: 7462031063063779138}
  - {fileID: 6456669715562829167}
  - {fileID: 6195437494660260251}
  - {fileID: 3302804613088001707}
  m_Father: {fileID: 0}
  m_RootOrder: 0
  m_LocalEulerAnglesHint: {x: 0, y: -135.218, z: 0}
--- !u!114 &5167245618459964633
MonoBehaviour:
  m_ObjectHideFlags: 0
  m_CorrespondingSourceObject: {fileID: 0}
  m_PrefabInstance: {fileID: 0}
  m_PrefabAsset: {fileID: 0}
  m_GameObject: {fileID: 2809563105460020774}
  m_Enabled: 1
  m_EditorHideFlags: 0
  m_Script: {fileID: 11500000, guid: 45f8606e6e736524bad150bf83c5aef1, type: 3}
  m_Name: 
  m_EditorClassIdentifier: 
  pathHolder: {fileID: 6456669715562829167}
  endLink: {fileID: 7327884467365828337}
  rayColor: {r: 1, g: 1, b: 1, a: 1}
--- !u!1 &3561147823100067051
GameObject:
  m_ObjectHideFlags: 0
  m_CorrespondingSourceObject: {fileID: 0}
  m_PrefabInstance: {fileID: 0}
  m_PrefabAsset: {fileID: 0}
  serializedVersion: 6
  m_Component:
  - component: {fileID: 2494040949687278659}
  m_Layer: 9
  m_Name: 3
  m_TagString: Untagged
  m_Icon: {fileID: 0}
  m_NavMeshLayer: 0
  m_StaticEditorFlags: 0
  m_IsActive: 1
--- !u!4 &2494040949687278659
Transform:
  m_ObjectHideFlags: 0
  m_CorrespondingSourceObject: {fileID: 0}
  m_PrefabInstance: {fileID: 0}
  m_PrefabAsset: {fileID: 0}
  m_GameObject: {fileID: 3561147823100067051}
  m_LocalRotation: {x: 3.5527137e-15, y: -0.20480154, z: -2.6645353e-15, w: 0.9788036}
  m_LocalPosition: {x: 0.0066, y: 0.01063, z: -0.02845}
  m_LocalScale: {x: 1, y: 1, z: 1}
  m_Children: []
  m_Father: {fileID: 6456669715562829167}
  m_RootOrder: 3
  m_LocalEulerAnglesHint: {x: 0, y: -23.636002, z: 0}
--- !u!64 &9014480290541243652
MeshCollider:
  m_ObjectHideFlags: 0
  m_CorrespondingSourceObject: {fileID: 0}
  m_PrefabInstance: {fileID: 0}
  m_PrefabAsset: {fileID: 0}
  m_GameObject: {fileID: 5896668144768787793}
  m_Material: {fileID: 0}
  m_IsTrigger: 0
  m_Enabled: 1
  serializedVersion: 4
  m_Convex: 0
  m_CookingOptions: 30
  m_Mesh: {fileID: 1041078349899018520, guid: 015f1454c6e51904080cd2b6ece9f5f8, type: 3}
--- !u!1 &6308062205810247805
GameObject:
  m_ObjectHideFlags: 0
  m_CorrespondingSourceObject: {fileID: 0}
  m_PrefabInstance: {fileID: 0}
  m_PrefabAsset: {fileID: 0}
  serializedVersion: 6
  m_Component:
  - component: {fileID: 6456669715562829167}
  m_Layer: 9
  m_Name: Path
  m_TagString: Untagged
  m_Icon: {fileID: 0}
  m_NavMeshLayer: 0
  m_StaticEditorFlags: 0
  m_IsActive: 1
--- !u!4 &6456669715562829167
Transform:
  m_ObjectHideFlags: 0
  m_CorrespondingSourceObject: {fileID: 0}
  m_PrefabInstance: {fileID: 0}
  m_PrefabAsset: {fileID: 0}
  m_GameObject: {fileID: 6308062205810247805}
  m_LocalRotation: {x: 0, y: 0, z: 0, w: 1}
  m_LocalPosition: {x: 0, y: 0, z: 0}
  m_LocalScale: {x: 1, y: 1, z: 1}
  m_Children:
  - {fileID: 7327884467365828337}
  - {fileID: 5649381664474234402}
  - {fileID: 7503736600813960409}
  - {fileID: 2494040949687278659}
  - {fileID: 9072802265898490267}
  m_Father: {fileID: 1969577687295331754}
  m_RootOrder: 1
  m_LocalEulerAnglesHint: {x: 0, y: 0, z: 0}
--- !u!1001 &2518850820821318744
PrefabInstance:
  m_ObjectHideFlags: 0
  serializedVersion: 2
  m_Modification:
    m_TransformParent: {fileID: 1969577687295331754}
    m_Modifications:
    - target: {fileID: -4216859302048453862, guid: 015f1454c6e51904080cd2b6ece9f5f8,
        type: 3}
      propertyPath: m_LocalPosition.x
      value: 0.042049427
      objectReference: {fileID: 0}
    - target: {fileID: -4216859302048453862, guid: 015f1454c6e51904080cd2b6ece9f5f8,
        type: 3}
      propertyPath: m_LocalPosition.y
      value: 0.040000003
      objectReference: {fileID: 0}
    - target: {fileID: -4216859302048453862, guid: 015f1454c6e51904080cd2b6ece9f5f8,
        type: 3}
      propertyPath: m_LocalPosition.z
      value: -0.09915562
      objectReference: {fileID: 0}
    - target: {fileID: -4216859302048453862, guid: 015f1454c6e51904080cd2b6ece9f5f8,
        type: 3}
      propertyPath: m_LocalRotation.x
      value: 0.000000020887384
      objectReference: {fileID: 0}
    - target: {fileID: -4216859302048453862, guid: 015f1454c6e51904080cd2b6ece9f5f8,
        type: 3}
      propertyPath: m_LocalRotation.y
      value: 0.9246059
      objectReference: {fileID: 0}
    - target: {fileID: -4216859302048453862, guid: 015f1454c6e51904080cd2b6ece9f5f8,
        type: 3}
      propertyPath: m_LocalRotation.z
      value: 0.0000000214408
      objectReference: {fileID: 0}
    - target: {fileID: -4216859302048453862, guid: 015f1454c6e51904080cd2b6ece9f5f8,
        type: 3}
      propertyPath: m_LocalRotation.w
      value: 0.3809252
      objectReference: {fileID: 0}
    - target: {fileID: -4216859302048453862, guid: 015f1454c6e51904080cd2b6ece9f5f8,
        type: 3}
      propertyPath: m_RootOrder
      value: 0
      objectReference: {fileID: 0}
    - target: {fileID: -4216859302048453862, guid: 015f1454c6e51904080cd2b6ece9f5f8,
        type: 3}
      propertyPath: m_LocalEulerAnglesHint.x
      value: 0
      objectReference: {fileID: 0}
    - target: {fileID: -4216859302048453862, guid: 015f1454c6e51904080cd2b6ece9f5f8,
        type: 3}
      propertyPath: m_LocalEulerAnglesHint.y
      value: 0
      objectReference: {fileID: 0}
    - target: {fileID: -4216859302048453862, guid: 015f1454c6e51904080cd2b6ece9f5f8,
        type: 3}
      propertyPath: m_LocalEulerAnglesHint.z
      value: 0
      objectReference: {fileID: 0}
    - target: {fileID: -4216859302048453862, guid: 015f1454c6e51904080cd2b6ece9f5f8,
        type: 3}
      propertyPath: m_LocalScale.x
      value: 1
      objectReference: {fileID: 0}
    - target: {fileID: -4216859302048453862, guid: 015f1454c6e51904080cd2b6ece9f5f8,
        type: 3}
      propertyPath: m_LocalScale.y
      value: 1
      objectReference: {fileID: 0}
    - target: {fileID: -4216859302048453862, guid: 015f1454c6e51904080cd2b6ece9f5f8,
        type: 3}
      propertyPath: m_LocalScale.z
      value: 1
      objectReference: {fileID: 0}
    - target: {fileID: -1504981713932161579, guid: 015f1454c6e51904080cd2b6ece9f5f8,
        type: 3}
      propertyPath: m_Materials.Array.data[0]
      value: 
      objectReference: {fileID: 2100000, guid: fff65bf1339b7eb41b066c025a3995bc, type: 2}
    - target: {fileID: -927199367670048503, guid: 015f1454c6e51904080cd2b6ece9f5f8,
        type: 3}
      propertyPath: m_Name
      value: aangle
      objectReference: {fileID: 0}
    - target: {fileID: -927199367670048503, guid: 015f1454c6e51904080cd2b6ece9f5f8,
        type: 3}
      propertyPath: m_TagString
      value: Toboggan
      objectReference: {fileID: 0}
    - target: {fileID: -927199367670048503, guid: 015f1454c6e51904080cd2b6ece9f5f8,
        type: 3}
      propertyPath: m_Layer
      value: 9
      objectReference: {fileID: 0}
    m_RemovedComponents:
    - {fileID: -6860895033569716450, guid: 015f1454c6e51904080cd2b6ece9f5f8, type: 3}
  m_SourcePrefab: {fileID: 100100000, guid: 015f1454c6e51904080cd2b6ece9f5f8, type: 3}
--- !u!1 &5896668144768787793 stripped
GameObject:
  m_CorrespondingSourceObject: {fileID: -927199367670048503, guid: 015f1454c6e51904080cd2b6ece9f5f8,
    type: 3}
  m_PrefabInstance: {fileID: 2518850820821318744}
  m_PrefabAsset: {fileID: 0}
--- !u!4 &7462031063063779138 stripped
Transform:
  m_CorrespondingSourceObject: {fileID: -4216859302048453862, guid: 015f1454c6e51904080cd2b6ece9f5f8,
    type: 3}
  m_PrefabInstance: {fileID: 2518850820821318744}
  m_PrefabAsset: {fileID: 0}
--- !u!1001 &4015898224171654142
PrefabInstance:
  m_ObjectHideFlags: 0
  serializedVersion: 2
  m_Modification:
    m_TransformParent: {fileID: 1969577687295331754}
    m_Modifications:
    - target: {fileID: 1904667927680787797, guid: 7120dc1347593504cac169ac8587ca07,
        type: 3}
      propertyPath: m_LocalPosition.x
      value: 0.02308
      objectReference: {fileID: 0}
    - target: {fileID: 1904667927680787797, guid: 7120dc1347593504cac169ac8587ca07,
        type: 3}
      propertyPath: m_LocalPosition.y
      value: 0.02952
      objectReference: {fileID: 0}
    - target: {fileID: 1904667927680787797, guid: 7120dc1347593504cac169ac8587ca07,
        type: 3}
      propertyPath: m_LocalPosition.z
      value: -0.06683
      objectReference: {fileID: 0}
    - target: {fileID: 1904667927680787797, guid: 7120dc1347593504cac169ac8587ca07,
        type: 3}
      propertyPath: m_LocalRotation.x
      value: -0
      objectReference: {fileID: 0}
    - target: {fileID: 1904667927680787797, guid: 7120dc1347593504cac169ac8587ca07,
        type: 3}
      propertyPath: m_LocalRotation.y
      value: -0.92460597
      objectReference: {fileID: 0}
    - target: {fileID: 1904667927680787797, guid: 7120dc1347593504cac169ac8587ca07,
        type: 3}
      propertyPath: m_LocalRotation.z
      value: 0
      objectReference: {fileID: 0}
    - target: {fileID: 1904667927680787797, guid: 7120dc1347593504cac169ac8587ca07,
        type: 3}
      propertyPath: m_LocalRotation.w
      value: 0.38092512
      objectReference: {fileID: 0}
    - target: {fileID: 1904667927680787797, guid: 7120dc1347593504cac169ac8587ca07,
        type: 3}
      propertyPath: m_RootOrder
      value: 3
      objectReference: {fileID: 0}
    - target: {fileID: 1904667927680787797, guid: 7120dc1347593504cac169ac8587ca07,
        type: 3}
      propertyPath: m_LocalEulerAnglesHint.x
      value: 0
      objectReference: {fileID: 0}
    - target: {fileID: 1904667927680787797, guid: 7120dc1347593504cac169ac8587ca07,
        type: 3}
      propertyPath: m_LocalEulerAnglesHint.y
      value: 0
      objectReference: {fileID: 0}
    - target: {fileID: 1904667927680787797, guid: 7120dc1347593504cac169ac8587ca07,
        type: 3}
      propertyPath: m_LocalEulerAnglesHint.z
      value: 0
      objectReference: {fileID: 0}
    - target: {fileID: 8682951846261144237, guid: 7120dc1347593504cac169ac8587ca07,
        type: 3}
      propertyPath: m_Name
      value: Sphere
      objectReference: {fileID: 0}
    m_RemovedComponents: []
  m_SourcePrefab: {fileID: 100100000, guid: 7120dc1347593504cac169ac8587ca07, type: 3}
--- !u!4 &3302804613088001707 stripped
Transform:
  m_CorrespondingSourceObject: {fileID: 1904667927680787797, guid: 7120dc1347593504cac169ac8587ca07,
    type: 3}
  m_PrefabInstance: {fileID: 4015898224171654142}
  m_PrefabAsset: {fileID: 0}
--- !u!1001 &6797575738670798810
PrefabInstance:
  m_ObjectHideFlags: 0
  serializedVersion: 2
  m_Modification:
    m_TransformParent: {fileID: 1969577687295331754}
    m_Modifications:
    - target: {fileID: 841973625263568449, guid: 6b53aa5cb25d68040a2ab023d453dad5,
        type: 3}
      propertyPath: m_LocalPosition.x
      value: 0.01453
      objectReference: {fileID: 0}
    - target: {fileID: 841973625263568449, guid: 6b53aa5cb25d68040a2ab023d453dad5,
        type: 3}
      propertyPath: m_LocalPosition.y
      value: 0.02167
      objectReference: {fileID: 0}
    - target: {fileID: 841973625263568449, guid: 6b53aa5cb25d68040a2ab023d453dad5,
        type: 3}
      propertyPath: m_LocalPosition.z
      value: -0.05068
      objectReference: {fileID: 0}
    - target: {fileID: 841973625263568449, guid: 6b53aa5cb25d68040a2ab023d453dad5,
        type: 3}
      propertyPath: m_LocalRotation.x
      value: 0.16674441
      objectReference: {fileID: 0}
    - target: {fileID: 841973625263568449, guid: 6b53aa5cb25d68040a2ab023d453dad5,
        type: 3}
      propertyPath: m_LocalRotation.y
      value: -0.16790958
      objectReference: {fileID: 0}
    - target: {fileID: 841973625263568449, guid: 6b53aa5cb25d68040a2ab023d453dad5,
        type: 3}
      propertyPath: m_LocalRotation.z
      value: 0.010827727
      objectReference: {fileID: 0}
    - target: {fileID: 841973625263568449, guid: 6b53aa5cb25d68040a2ab023d453dad5,
        type: 3}
      propertyPath: m_LocalRotation.w
      value: 0.97153765
      objectReference: {fileID: 0}
    - target: {fileID: 841973625263568449, guid: 6b53aa5cb25d68040a2ab023d453dad5,
        type: 3}
      propertyPath: m_RootOrder
      value: 2
      objectReference: {fileID: 0}
    - target: {fileID: 841973625263568449, guid: 6b53aa5cb25d68040a2ab023d453dad5,
        type: 3}
      propertyPath: m_LocalEulerAnglesHint.x
      value: 19.125
      objectReference: {fileID: 0}
    - target: {fileID: 841973625263568449, guid: 6b53aa5cb25d68040a2ab023d453dad5,
        type: 3}
      propertyPath: m_LocalEulerAnglesHint.y
      value: -19.968
      objectReference: {fileID: 0}
    - target: {fileID: 841973625263568449, guid: 6b53aa5cb25d68040a2ab023d453dad5,
        type: 3}
      propertyPath: m_LocalEulerAnglesHint.z
      value: -2.1200001
      objectReference: {fileID: 0}
    - target: {fileID: 5285988853817158131, guid: 6b53aa5cb25d68040a2ab023d453dad5,
        type: 3}
      propertyPath: m_Name
      value: Obstacles
      objectReference: {fileID: 0}
    m_RemovedComponents: []
  m_SourcePrefab: {fileID: 100100000, guid: 6b53aa5cb25d68040a2ab023d453dad5, type: 3}
--- !u!4 &6195437494660260251 stripped
Transform:
  m_CorrespondingSourceObject: {fileID: 841973625263568449, guid: 6b53aa5cb25d68040a2ab023d453dad5,
    type: 3}
  m_PrefabInstance: {fileID: 6797575738670798810}
  m_PrefabAsset: {fileID: 0}
